{
	"XVIII": {
		"_1700": [
			{
				"titulo": "El rey Felipe sube al trono",
				"descripcion": "El 16 de noviembre, el duque de Anjou, Felipe de Borbón, es proclamado rey, convirtiéndose en el primer rey de la Casa de Borbón del reino español."
			}
		],
		"_1752": [
			{
				"titulo": "Nacimiento del obispo Cabañas",
				"descripcion": "El 3 de mayo, nace en Navarra, Juan Cruz Ruiz de Cabañas y Crespo, futuro  obispo de la diócesis de Guadalajara de 1795 a 1824."
			}
		],
		"_1757": [
			{
				"titulo": "Nacimiento de Manuel Tolsá",
				"descripcion": "El 4 de mayo, nace en Enguera, Valencia, don Manuel Vicente Agustín Tolsá y Sarrión, reconocido arquitecto y escultor quién fue el iniciador del estilo neoclásico en la Nueva España."
			}
		],
		"_1772": [
			{
				"titulo": "Nacimiento de José Gutiérrez",
				"descripcion": "Nace en Macharaviaya, municipio de Málaga, José Gutiérrez, arquitecto y académico de mérito de la Real Academia de San Carlos y primer maestro de arquitectura en la Nueva Galicia."
			}
		],
		"_1781": [
			{
				"titulo": "La Real Academia de San Carlos",
				"descripcion": "El Rey Carlos III funda la Real Academia de San Carlos de las Nobles Artes de la Nueva España, la primera academia fundada en América."
			}
		],
		"_1787": [
			{
				"titulo": "El Hospital San Miguel de Belén",
				"descripcion": "Ante la epidemia de cólera, Fray Antonio Alcalde inicia un proyecto para “airear” la ciudad, proyectando hacia el norte el Santuario de la Virgen de Guadalupe y la construcción del Hospital Real de San Miguel de Belén."
			}
		],
		"_1791": [
			{
				"titulo": "Manuel Tolsá llega a la  Nueva España",
				"descripcion": "Arriba Manuel Tolsá a la ciudad de México para hacerse cargo de la dirección de escultura de la Real Academia de San Carlos."
			}
		],
		"_1792": [
			{
				"titulo": "La Real Universidad de Guadalajara",
				"descripcion": "El 7 de agosto, fallece el obispo Fray Antonio Alcalde y Barriga, quien dejó grandes beneficios a la ciudad de Guadalajara, como la construcción del Hospital San Miguel de Belén (hoy Antiguo Hospital Civil), el Santuario de Guadalupe, la Real Universidad de Guadalajara y un sinfín de obras de beneficencia para los más necesitados. El 3 de noviembre, se inaugura la Real Universidad de Guadalajara, la segunda universidad de la Nueva España. Adopta el modelo de la Universidad de Salamanca (en ese momento, referente europeo de educación universitaria) e inicia con las cátedras de medicina, derecho, teología y filosofía, con sede en el Antiguo Colegio de Santo Tomás que había quedado deshabilitado tras la expulsión de la orden de la Compañía de Jesús."
			}
		],
		"_17922": [
			{
				"titulo": "La primera imprenta en Guadalajara",
				"descripcion": "Con el decreto del 7 de febrero de 1792, que le había otorgado la Real Audiencia de Guadalajara, Mariano Valdés, hijo de don Manuel Antonio Valdés, impresor en la Ciudad de México, establece la imprenta en Guadalajara."
			}
		],
		"_1796": [
			{
				"titulo": "Se inaugura la escultura a Carlos IV",
				"descripcion": "El 9 de diciembre, fecha del cumpleaños de la reina María Luisa, se inaugura la estatua provisional en madera del monarca Carlos IV,  mandada a hacer por el virrey Miguel de la Grúa Salamanca y Branciforte quien le encomienda este importante trabajo a Manuel Tolsá. Después de reunir los fondos para el vaciado de la escultura, en 1803, exactamente siete años más tarde, se devela el monumento ecuestre en bronce del monarca en la plaza principal en presencia del ahora virrey José de Iturrigaray. Hoy en día se conoce esta estatua coloquialmente con el nombre del Caballito."
			}
		]
	},
	"XIX": {
		"_1801": [
			{
				"titulo": "La elección del terreno",
				"descripcion": "Al oriente de Guadalajara, muy cerca del río de San Juan de Dios, existía una vieja casa con huerta y solar, propiedad del Santuario de Nuestra Señora de la Soledad, que fue vendida el 19 de mayo al licenciado Pedro Díaz Escandón por mil ochocientos ochenta pesos. Posteriormente, Escandón cede esta propiedad para la construcción de lo que sería poco tiempo después la Casa de la Misericordia."
			}
		],
		"_1804-1805": [
			{
				"titulo": "La Casa de la Misericordia",
				"descripcion": "Con el terreno ya disponible, el obispo Cabañas solicita un proyecto arquitectónico a la Real Academia de San Carlos para la construcción de la Casa de la Misericordia. El Director de la Academia, Don Antonio Jerónimo Gil, y Manuel Tolsá, entonces director de arquitectura de la Academia, designan entre sus egresados al más capacitado para hacerse cargo de la construcción del inmueble. El arquitecto José Gutiérrez, académico de mérito de la Real Academia, a partir de ese momento tendrá la dirección total de la obra, y además se encargará de impartir clases de arquitectura en Guadalajara. La construcción de la Casa de la Misericordia se inicia en febrero de 1805 bajo la dirección de José Gutiérrez quien ya se encontraba en Guadalajara. Paralelamente el arquitecto construye el Puente Verde (ubicado en la Calzada Independencia a la altura de Av. Revolución) para asegurar las vías de comunicación y de abastecimiento del centro de la ciudad a la casa de expósitos."
			}
		],
		"_1810": [
			{
				"titulo": "Primeros asilados",
				"descripcion": "El 1° de febrero, con la construcción casi finalizada (a excepción de la cúpula), la Casa de la Misericordia recibe a los primeros asilados –66 en total, entre niños y desvalidos–. Esta obra y el Hospital San Miguel de Belén serán las raíces de la filantropía en el Estado de Jalisco. Este mismo año se suspenden las obras de construcción debido al movimiento insurgente, lo que provoca que la casa sea convertida en cuartel militar."
			}
		],
		"_18102": [
			{
				"titulo": "La guerra de Independencia",
				"descripcion": "El 16 de septiembre, Miguel Hidalgo y Costilla hace el llamado a las armas en el pueblo de Dolores, Guanajuato. Inicia la guerra de Independencia."
			}
		],
		"_18103": [
			{
				"titulo": "Miguel Hidalgo en Guadalajara",
				"descripcion": "El 26 de noviembre, Miguel Hidalgo y Costilla hace su entrada triunfal en Guadalajara, después de haber pasado por los municipios de Zamora, La Barca, Atequiza y Tlaquepaque. El 20 de diciembre, se publica en Guadalajara El Despertador Americano, primer periódico publicado por los insurgentes durante la guerra de Independencia."
			}
		],
		"_18104": [
			{
				"titulo": "José Gutiérrez, artillero",
				"descripcion": "El arquitecto José Gutiérrez se alista en las tropas de Félix María Calleja como artillero y posteriormente regrese a la ciudad de México para hacerse cargo de la dirección de arquitectura en la Academia de San Carlos. El 20 de diciembre se publica en Guadalajara “El Despertador Americano“, primer periódico publicado por los insurgentes durante la guerra de Independencia."
			}
		],
		"_18105": [
			{
				"titulo": "Manuel Gómez Ibarra",
				"descripcion": "Nace en la hacienda 'La Labor', Manuel Gómez Ibarra, destacado arquitecto, discípulo de José Gutiérrez."
			}
		],
		"_1811": [
			{
				"titulo": "ciudadela militar",
				"descripcion": "El inmueble es fortificado utilizado como ciudadela por uno y otro bando durante la Guerra de Independencia, alojando a centenares de hombres y hasta 200 caballos."
			}
		],
		"_1816": [
			{
				"titulo": "Muere Manuel Tolsá",
				"descripcion": "El 24 de diciembre, muere don Manuel Vicente Agustín Tolsá y Sarrión en la ciudad de México a causa de una úlcera gástrica."
			}
		],
		"_1821": [
			{
				"titulo": "Los Tratados de Córdoba",
				"descripcion": "El 24 de agosto, Agustín de Iturbide y el virrey Juan O' Donojú firman los Tratados de Córdoba, con los cuales se reconoce la independencia de México y se asume como forma de gobierno una monarquía institucional moderada. El 27 de septiembre, se consuma la independencia. El Ejército Trigarante al mando de Iturbide desfila victorioso por las calles de la ciudad de México."
			}
		],
		"_1823": [
			{
				"titulo": "El estado libre y soberano de Jalisco",
				"descripcion": "El 16 de junio, el imperialismo y el colonialismo quedan atrás, y surge el Estado Libre y Soberano de Xalisco."
			}
		],
		"_1824": [
			{
				"titulo": "La primera Constitución",
				"descripcion": "Se promulga la primera Constitución Federal de los Estados Unidos Mexicanos."
			}
		],
		"_18242": [
			{
				"titulo": "Muere el obispo Cabañas",
				"descripcion": "El 28 de noviembre, muere el obispo Juan Cruz Ruiz de Cabañas y Crespo en la ciudad de Guadalajara."
			}
		],
		"_1825": [
			{
				"titulo": "José Gutiérrez en la ciudad",
				"descripcion": "En enero, Prisciliano Sánchez Padilla toma posesión como primer gobernador del estado de Jalisco. José Gutiérrez regresa a Guadalajara para reanudar los trabajos en el templo del Sagrario y realizar las modificaciones en la portada del antiguo templo de Santo Tomás."
			}
		],
		"_1826": [
			{
				"titulo": "El gobernador Prisciliano Sánchez",
				"descripcion": "El 30 de diciembre muere Prisciliano Sánchez, el primer gobernador constitucional del estado de Jalisco."
			}
		],
		"_1828": [
			{
				"titulo": "Se retoma la vocación de La Casa de la Misericordia",
				"descripcion": "Como resultado de las gestiones del gobernador Juan N. Cumplido, los militares desocupan el inmueble, reiniciando las reparaciones y las obras inconclusas desde 1810.  En febrero abre nuevamente la Casa de la Caridad y Misericordia con 40 niños."
			}
		],
		"_1834": [
			{
				"titulo": "Muere José Gutiérrez",
				"descripcion": "Fallece el arquitecto José Gutierrez en Guadalajara a la edad de sesenta y tres años, víctima de irritación corporal, que ahora correspondería a una fuerte infección."
			}
		],
		"_1836": [
			{
				"titulo": "La construcción de la cúpula",
				"descripcion": "Bajo el mandato del obispo Diego de Aranda, Manuel Gómez Ibarra, discípulo del arquitecto José Gutiérrez, reinicia la construcción de la cúpula de la capilla de la Casa de la Misericordia."
			}
		],
		"_1845": [
			{
				"titulo": "Antonio López de Santa Anna entra a Guadalajara",
				"descripcion": "Antonio López de Santa Anna entra a la ciudad para imponer el centralismo."
			}
		],
		"_1845": [
			{
				"titulo": "Culminación de las bóvedas",
				"descripcion": "Las bóvedas de la Casa de la Caridad y Misericordia son finalmente terminadas de acuerdo al proyecto inicial. Las obras estuvieron a cargo de Manuel Gómez Ibarra. A partir d entonces la Casa recibe el nombre de Hospicio Cabañas en honor a su fundador."
			}
		],
		"_1852": [
			{
				"titulo": "La cúpula es concluida",
				"descripcion": "Manuel Gómez Ibarra concluye la construcción de la cúpula del edificio. La Casa de la Misericordia vuelve a ser utilizada como ciudadela, y los niños que la habitan son enviados a distintos lugares de la ciudad."
			}
		],
		"_1853": [
			{
				"titulo": "Las Hermanas de la Caridad",
				"descripcion": "Gracias a diversas gestiones, arriban a Guadalajara las Hermanas de la Caridad, quienes se encargarán de atender la institución a partir de ese momento."
			}
		],
		"_1857": [
			{
				"titulo": "La construcción del Teatro Degollado",
				"descripcion": "La Real Universidad de Guadalajara se clausura. El 5 de marzo, bajo el gobierno de José Santos Degollado, se coloca la primera piedra del Teatro Juan Ruiz de Alarcón, posteriormente conocido como el Teatro Degollado. La construcción estuvo a cargo del arquitecto Jacobo Gálvez."
			}
		],
		"_1859": [
			{
				"titulo": "La Ley de Nacionalización de Bienes Eclesiásticos",
				"descripcion": "El 12 de julio, en Veracruz, el presidente Benito Juárez expide la Ley de Nacionalización de los Bienes Eclesiásticos por la cual todas las propiedades de la iglesia pasan a ser dominio de la nación."
			}
		],
		"_18592": [
			{
				"titulo": "Sor Ignacia Osés",
				"descripcion": "La Casa de la Misericordia recibe como directora a Sor Ignacia Osés quién desempeñará este cargo hasta 1874. Gracias a su impecable administración y generosidad, este periodo será conocido como la época de oro del hospicio.  Durante este tiempo, con el apoyo del gran benefactor Juan José Matute, se crean el asilo de mendigos, el departamento de cuna y talleres; se brinda ropa a los internos; y se decide bajo el gobierno eclesiástico que todos los niños expósitos llevarán el apellido Cabañas en memoria de su fundador."
			}
		],	
		"_1862-1867": [
			{
				"titulo": "La segunda intervención francesa",
				"descripcion": "Debido a que el presidente Benito Juárez suspendió los pagos de la deuda externa del país en 1861, Francia, Inglaterra y España envían tropas a México. Con el Tratado de la Soledad, las tropas inglesas y españolas se retiran. El ejército francés continúa a Puebla donde es derrotado en una batalla el 5 de mayo. Posteriormente, los franceses reciben refuerzos y continúan hasta ocupar la ciudad de México y Guadalajara."
			}
		],
		"_1864": [
			{
				"titulo": "Crisis en la Casa de la Misericordia",
				"descripcion": "Como consecuencia de la Ley de Nacionalización de Bienes Eclesiásticos, la institución pasa por un periodo difícil debido a los recortes de gastos y el déficit. Fernando Díaz de Escandón, administrador de la Casa de la Misericordia, vende la huerta que se extiende al frente del edificio hasta el río San Juan de Dios para así poder sobrellevar la grave situación económica."
			}
		],
		"_18642": [
			{
				"titulo": "Maximiliano de Habsburgo",
				"descripcion": "El archiduque Fernando Maximiliano de Habsburgo recibe el título de emperador de México, ofrecido por una comisión donde se encontraba Juan Nepomuceno Almonte, hijo de José María Morelos y Pavón, con el beneplácito de Napoleón III de Francia."
			}
		],
		"_1865": [
			{
				"titulo": "Informe sobre la Casa de Misericordia",
				"descripcion": "Los miembros del Consejo Superior de Beneficencia elaboran un informe donde se asienta que las 17 monjas que había en el Hospicio Cabañas, se encargaban de siete departamentos: hombres y mujeres adultos pobres, niños y niñas pobres, casa de cuna, visita domiciliaria y el colegio de pensionistas y asiladas. Todos los internos recibían instrucción primaria y posteriormente aprendían algún oficio, como el bordado, la cocina, la zapatería, la carpintería o la imprenta. Cabe mencionar que el primer libro editado en Guadalajara se imprimió en este recinto."
			}
		],
		"_1871": [
			{
				"titulo": "El gobernador Ignacio Luis Vallarta Ogazón",
				"descripcion": "Inicia el gobierno de Ignacio Luis Vallarta en Jalisco. Su gubernatura concluye en 1875.  Durante su gobierno, se fundó la Escuela de Agricultura y se estableció la obligatoriedad de la educación primaria.  Puerto Vallarta lleva tal nombre en su memoria."
			}
		],
		"_1876": [
			{
				"titulo": "Primer mandato de Porfirio Díaz",
				"descripcion": "Después de la Revolución de Tuxtepec, el 24 de noviembre, Porfirio Díaz Mori inicia su primer mandato que finaliza el 6 de diciembre del mismo año."
			}
		],
		"_1883": [
			{
				"titulo": "Bases reglamentarias del Hospicio",
				"descripcion": "Siendo gobernador el General Francisco Tolentino y directora la Sra. Luz Herrera, se acordaron las nuevas bases reglamentarias del Hospicio que substituyeron a las ordenanzas de la Casa de Caridad y Misericordia, la institución fue nombrada oficialmente “Hospicio de Guadalajara” que integra una casa de expósitos, asilo de huérfanos, escuela de artes, tejido y contabilidad."
			}
		],
		"_18832": [
			{
				"titulo": "Nace José Clemente Orozco",
				"descripcion": "El 23 de noviembre, el muralista José Clemente Ángel Orozco Flores nace en Zapotlán el Grande, Jalisco."
			}
		],
		"_1889": [
			{
				"titulo": "El primer ferrocarril",
				"descripcion": "El primer ferrocarril llega a Guadalajara desde la Ciudad de México. Muere asesinado el general Ramón Corona, gobernador del Estado de Jalisco."
			}
		],
		"_1893": [
			{
				"titulo": "Porfirio Díaz es presidente por cuarta ocasión",
				"descripcion": "Por cuarta vez, el general Porfirio Díaz Mori rinde protesta como Presidente Constitucional."
			}
		]
	},
	"XX": {
		"_1902": [
			{
				"titulo": "El periódico Regeneración",
				"descripcion": "Los hermanos Ricardo y Jesús Flores Magón fundan el periódico Regeneración, por medio del cual atacan la dictadura de Porfirio Díaz. En 1902, Ricardo y Enrique Flores Magón editan El hijo de El Ahuizote. Ambos periódicos fueron suprimidos por el régimen dictatorial de Porfirio Díaz."
			}
		],
		"_1909": [
			{
				"titulo": "Población en el Hospicio Cabañas",
				"descripcion": "El Hospicio alberga 772 personas entre asilados y empleados."
			}
		],
		"_1910": [
			{
				"titulo": "La Revolución Mexicana",
				"descripcion": "El 20 de noviembre, estalla la Revolución Mexicana liderada por Francisco Ignacio Madero. Para entonces, el Hospicio albergaba un total de 770 personas, entre asilados y empleados. Durante este periodo revolucionario, el lugar no experimentó muchos cambios en cuanto a su fisionomía, salvo algunas rehabilitaciones en los muros." 
			}
		],
		"_1913": [
			{
				"titulo": "La Decena Trágica",
				"descripcion": "Del 9 al 19 de febrero inicia un golpe militar en la ciudad de México conocido como la Decena Trágica, que culmina con el derrocamiento del gobierno de Francisco I. Madero."
			}
		],
		"_1914": [
			{
				"titulo": "La ocupación de los estadounidenses",
				"descripcion": "En oposición al gobierno de Victoriano Huerta y con pobres relaciones diplomáticas con México, Estados Unidos toma el puerto de Veracruz el 21 de abril de 1914."
			}
		],
		"_1917": [
			{
				"titulo": "Promulgación de la Constitución ",
				"descripcion": "El 5 de febrero el presidente Venustiano Carranza proclama la Constitución Política de los Estados Unidos Mexicanos, que reforma la del 5 de febrero de 1857, especialmente lo referente a los derechos humanos aunque ya no los menciona como tales, sino que alude a las llamadas garantías individuales."
			}
		],
		"_1922": [
			{
				"titulo": "Capilla Mayor",
				"descripcion": "Se retira de la Capilla Mayor el altar de estilo gótico, que había sido construido en 1807."
			}
		],
		"_1926": [
			{
				"titulo": "La Universidad de Guadalajara",
				"descripcion": "El 12 de octubre el gobernador de Jalisco, José Guadalupe Zuno Hernández, reabre La Real Universidad de Guadalajara bajo el nombre de “Universidad de Guadalajara”, como institución pública, laica, gratuita y abierta a todos los ciudadanos. Este acto permitió concretar los ideales posrevolucionarios de la educación. En esta nueva etapa la universidad es impulsada por el primer rector Enrique Díaz de León y un grupo de intelectuales de las ciencias y las artes denominado Centro Bohemio, grupo que reunía a notables artistas plásticos de la época en Jalisco, entre algunos: Xavier Guerrero (1896-1974), Carlos Orozco Romero (1898-1984) y David Alfaro Siqueiros (1896-1974)."
			}
		],
		"_19262": [
			{
				"titulo": "La Guerra Cristera",
				"descripcion": "La guerra Cristera o Cristiada, un conflicto posrevolucionario entre 1926 y 1929 durante el mandato de Plutarco Elías Calles, fue de gran impacto en el occidente de México. Las inconformidades de las autoridades eclesiásticas respecto de las Leyes de Reforma, con las que se buscaba que la Iglesia Católica se viera aminorada en su capacidad económica y política, fueron las causas principales del levantamiento armado. El 21 de junio de 1929 el gobierno de Emilio Portes Gil, quien toma el mando del país después del atentado contra Álvaro Obregón, reanuda el diálogo y establece acuerdos que dan por terminado el movimiento Cristero."
			}
		],
		"_1937": [
			{
				"titulo": "Clausura de la Universidad de Guadalajara",
				"descripcion": "Tras una serie de conflictos estudiantiles ocasionados por el impulso de aplicar la educación socialista en la Universidad de Guadalajara que el rector Enrique Díaz de León da a conocer durante el Primer Congreso de Universitarios en la ciudad de México, el gobernador Sebastián Allende decide clausurar la universidad."
			}
		],
		"_19372": [
			{
				"titulo": "Orozco en Guadalajara",
				"descripcion": "A instancias del gobernador de Jalisco, Everardo Topete, el artista José Clemente Orozco es llamado a pintar edificios públicos de la ciudad, entre ellos la que sería sede del Palacio Legislativo (hoy Museo de las Artes de la Universidad de Guadalajara), el Palacio de Gobierno y el interior de la capilla del Hospicio Cabañas. Este artista realizó 57 murales al fresco en el conjunto arquitectónico de la Capilla Mayor del Hospicio Cabañas. A decir de los especialistas, la obra cumbre de José Clemente Orozco."
			}
		],
		"_19373": [
			{
				"titulo": "La reapertura de la Universidad de Guadalajara",
				"descripcion": "El 22 de julio, bajo la rectoría de Constancio Hernández Alvirde, se restaura la universidad para evitar que la Universidad Autónoma de Guadalajara se apodere de la histórica denominación, Universidad de Guadalajara."
			}
		],
		"_1948": [
			{
				"titulo": "La Cruz de Plazas",
				"descripcion": "Por órdenes del gobernador de Jalisco, José de Jesús González Gallo, el arquitecto Ignacio Díaz Morales recibe la comisión de aumentar el número de espacios públicos de la ciudad de Guadalajara. Así nace el proyecto de La Cruz de Plazas comprendidas por: la Plaza de Armas fundada en 1561, la Rotonda de los Jaliscienses Ilustres (antes Jardín Herrera y Cairo y Templo de la Soledad), la Plaza Liberación (comprendida por dos manzanas entre el Teatro Degollado y la catedral) y las fincas ubicadas frente a la catedral."
			}
		],
		"_1949": [
			{
				"titulo": "La facultad de Arquitectura",
				"descripcion": "Bajo el liderazgo del arquitecto Ignacio Díaz Morales, y teniendo como rector al ingeniero Jorge Matute Remus, se funda la facultad de Arquitectura de la Universidad de Guadalajara."
			}
		],
		"_19492": [
			{
				"titulo": "Muere José Clemente Orozco",
				"descripcion": "El 7 de septiembre, José Clemente Orozco muere en la ciudad de México a los sesenta y seis años de edad."
			}
		],
		"_1953-1954": [
			{
				"titulo": "Restauración de la cúpula",
				"descripcion": "Durante la gubernatura de Agustín Yañez Delgadillo se restaura la cúpula de la capilla mayor actividad realizada por el ingeniero Jorge Matute Remus en colaboración con el ingeniero Edmundo Ponce Adame y el arquitecto Silvio Alberti."
			}
		],
		"_1956": [
			{
				"titulo": "La Rotonda de los Jaliscienses Ilustres",
				"descripcion": "Con un proyecto del arquitecto Vicente Mendiola, el ingeniero Miguel Aldana termina la construcción de la Rotonda de los Jaliscienses Ilustres, donde antes estuvieron ubicados el Santuario de la Soledad y el Seminario del Señor San José."
			}
		],
		"_1960": [
			{
				"titulo": "Estructura legal del Hospicio Cabañas",
				"descripcion": "Siendo Gobernador del Estado de Jalisco el Prof. Juan Gil Preciado, se redefinió la estructura legal el Hospicio Cabañas"
			}
		],
		"_1962": [
			{
				"titulo": "El mercado San Juan de Dios ",
				"descripcion": "Siendo gobernador del Estado de Jalisco el Prof. Juan Gil Preciado, después de cuatro años de construcción se concluye, a un costado del Hospicio Cabañas, el Mercado Libertad, mejor conocido como San Juan de Dios, proyecto del arquitecto Alejandro Zohn. Estos dos edificios se convierten en símbolos emblemáticos de la zona y son fundamentales del paisaje urbano de Guadalajara."
			}
		],
		"_1963": [
			{
				"titulo": "El Condominio Guadalajara",
				"descripcion": "Julio de la Peña construye el Condominio Guadalajara, símbolo de una ciudad moderna. El edificio es parte de un proyecto urbanístico que pretendía expandir la dinámica urbana del centro histórico y descentralizarla."
			}
		],
		"_1964": [
			{
				"titulo": "El Museo Nacional de Antropología",
				"descripcion": "Se inaugura el Museo Nacional de Antropología, diseñado por el arquitecto Pedro Ramírez Vázquez. Este museo se volvió el modelo a seguir en cuanto a museología y funcionalidad. Ha sido desde entonces un recinto museístico referencial para todo el país."
			}
		],
		"_1968": [
			{
				"titulo": "Juegos Olímpicos. México 68",
				"descripcion": "En un contexto deportivo y cultural, se realizan los Juegos Olímpicos de la XIX Olimpiada en México retomando por primera vez la Olimpiada Cultural que iniciara el barón Pierre de Coubertin. Esta Olimpiada posiciona al país a nivel mundial."
			}
		],
		"_19682": [
			{
				"titulo": "Ruta de la Amistad",
				"descripcion": "En el contexto de la XIX Olimpiada en México, se lleva a cabo la “Olimpiada Cultural”, uno de los programas incluye la invitación a los países participantes al corredor escultórico llamado “Ruta de la Amistad”, y se conforma un gran legado con los mejores artistas del mundo."
			}
		],
		"_1976": [
			{
				"titulo": "El fin de la dictadura española",
				"descripcion": "Muere Francisco Franco, termina la dictadura española e inicia el “Destape” y la “Movida Madrileña”, movimientos de contracultura postfranquista."
			}
		],
		"_19802": [
			{
				"titulo": "Hogar Cabañas",
				"descripcion": "El 13 de mayo de 1980 los niños son reubicados a las nuevas instalaciones del Hogar Cabañas con áreas verdes, alberca y espacios funcionales para una mejor estancia."
			}
		],
		"_1982": [
			{
				"titulo": "Plaza Tapatía",
				"descripcion": "Con la llegada de Flavio Romero de Velasco a la gubernatura del Estado de Jalisco, se inicia el proyecto que unirá al teatro Degollado con el Hospicio Cabañas:  la Plaza Tapatía la cual fue inaugurada el 5 de febrero de 1982 con la develación de diversas esculturas realizadas por Rafael Zamarripa – La Fundación y el Escudo de Guadalajara-  Víctor Contreras –Inmolación a Quetzalcóatl y Jorge de la Peña –La estampida-."
			}
		],
		"_1983": [
			{
				"titulo": "Instituto Cultural Cabañas",
				"descripcion": "El Gobierno del Estado de Jalisco toma el inmueble e inicia su remozamiento con fines culturales. Nace el Instituto Cultural Cabañas con el propósito principal de resguardar, conservar y divulgar la obra de José Clemente Orozco."
			}
		],
		"_1984": [
			{
				"titulo": "INBA / ICC",
				"descripcion": "El Instituto Nacional de Bellas Artes, INBA, le encomienda en resguardo al Instituto Cultural Cabañas, 330 obras en soporte de papel y 10 piroxilinas de este artista Jalisciense."
			}
		],
		"_1991": [
			{
				"titulo": "La primer Cumbre Iberoamericana",
				"descripcion": "Los días 18 y 19 de julio se reunieron por primera vez los jefes de Estado de 21 países Iberoamericanos, teniendo como sede el recinto Hospicio Cabañas. Los mandatarios asentaron aquí las bases para la construcción de un foro de encuentro que les permitiera avanzar en un proceso común tanto político como económico y cultural."
			}
		],
		"_1993": [
			{
				"titulo": "Colecciones Pueblo de Jalisco",
				"descripcion": "Siendo gobernador de Jalisco el profesor Juan Gil Preciado, la promotora de arte Carmen Marín de Barreda, le propuso formar una colección de pinturas y de esculturas realizadas por artistas plásticos oriundos de Jalisco, formando un importante acervo que desde entonces se denominó Colección Pueblo de Jalisco, este acervo se integra con obras de Gerardo Murillo “Dr. Atl”, de Roberto Montenegro, Jesús Guerrero Galván, Raúl Anguiano,  Jorge González Camarena, Jorge Enciso, Juan Soriano, Ignacio Aguirre, Alfredo España, Javier Arévalo, Gabriel Flores, Guillermo Chávez Vega, José Luis Figueroa, Carlos Orozco Romero, Jesús “Chucho” Reyes Ferreira, entre otros, y las esculturas de Fidencio Castillo, Rosa Castillo y Francisco Marín. En el año de 1982, el gobernador del estado de Jalisco, Flavio Romero de Velasco determinó que la Colección Pueblo de Jalisco fuese parte de los acervos del recién creado Instituto Cultural Cabañas."
			}
		],
		"_1994": [
			{
				"titulo": "La colección Mathias Goeritz",
				"descripcion": "La doctora Ana Cecilia Treviño entrega en donación al Instituto Cultural Cabañas  239 obras que conforman la colección Mathias Goeritz."
			}
		],
		"_1997": [
			{
				"titulo": "El Hospicio Cabañas, Patrimonio de la Humanidad",
				"descripcion": "El Comité del Patrimonio Mundial de Organización de las Naciones Unidas para la Educación, la Ciencia y la Cultura, UNESCO, en su vigésima primera reunión, celebrada en Nápoles, Italia, del 1 al 6 de diciembre, determina que por su belleza arquitectónica e importancia histórica y cultural, el Instituto Cultural Cabañas sea nombrado Patrimonio Cultural de la Humanidad."
			}
		]
	},
	"XXI": {
		"_2004": [
			{
				"titulo": "III Cumbre de América Latina, El Caribe y la Unión Europea",
				"descripcion": "Los días 28 y 29 de mayo se celebró la III Cumbre de América Latina, El Caribe y la Unión Europea, misma que tuvo su sede en el Instituto Cultural Cabañas.  En esta ocasión los Jefes  de 58 estados, se reunieron para dar seguimiento a la “Asociación estratégica birregional”,  la cual tenía como uno de los principales temas a tratar la guerra de Irak, reabrir el debate sobre la estrategia estadounidense frente al terrorismo global, así como reforzar el papel de la ONU y regresar a la vía del multilateralismo para enfrentar la compleja situación mundial.  Este mismo año se integra como directora del ICC, la Lic. Elena Matute Villaseñor, cargo que realiza hasta el 2006. Durante el periodo de la Cumbre y de las restauraciones, el inmueble permanece cerrado al público."
			}
		],
		"_2005": [
			{
				"titulo": "Colección Roberto Montenegro",
				"descripcion": "El Instituto Nacional de Bellas Artes, INBA, entrega en resguardo del Instituto Cultural Cabañas 1 015 obras de la colección Roberto Montenegro."
			}
		],
		"_2006": [
			{
				"titulo": "Colección de Arte Popular",
				"descripcion": "Se encomienda al Instituto Cultural Cabañas el reguardo de una valiosa colección de arte popular que se exhibía en la Casa de las Artesanías del Agua Azul. Esta colección incluye piezas de cerámica de Tonalá, de Tlaquepaque y loza antigua de Sayula; realizada en vidrio soplado, madera y metal, textiles y mil objetos más de gran calidad artesanal."
			}
		],
		"_2007": [
			{
				"titulo": "X aniversario como Patrimonio de la Humanidad",
				"descripcion": "En este año se conmemora el décimo aniversario del Instituto Cultural Cabañas como Patrimonio de la Humanidad. El Consejo Nacional para la Cultura y las Artes, CONACULTA, otorga al Instituto Cultural Cabañas un recurso extraordinario para el acondicionamiento de las salas museográficas con la intención de que cubran los estándares internacionales que marca el Consejo Internacional de Museos, ICOM."
			}
		],
		"_2009": [
			{
				"titulo": "III Cumbre de Líderes de América del Norte",
				"descripcion": "Se realizó los días 9 y 10 de agosto con la participación de los Presidentes Felipe Calderón de México, Barack Obama de Estados Unidos y el Primer Ministro de Canadá, Stephen Harper."
			}
		],
		"_2010": [
			{
				"titulo": "Restauración de murales",
				"descripcion": "El Instituto Nacional de Bellas Artes y la Secretaría de Cultura restauran el mural El hombre de fuego y las pechinas de la cúpula de la Capilla Mayor."
			}
		],
		"_2014-2015": [
			{
				"titulo": "Restauración del inmueble",
				"descripcion": "Siendo gobernador del Estado de Jalisco, el maestro Jorge Aristóteles Sandoval Díaz, y con el apoyo del entonces Consejo Nacional para la Cultura Federal y las Artes (CONACULTA) hoy Secretaría de Cultura, se llevan a cabo obras de restauración al edificio Hospicio Cabañas que alberga al Instituto Cultural Cabañas."
			}
		],
		"_2015": [
			{
				"titulo": "Conservación y restauración de colecciones",
				"descripcion": "Con la finalidad de continuar con la preservación del Patrimonio Cultural e Histórico de nuestra ciudad, se inicia el proyecto para la restauración de la Capilla Mayor y de las colecciones que alberga el Instituto Cultural Cabañas con el apoyo de la Comisión de Cultura del Congreso del Estado y la secretaría de Cultura del Estado.  Se restauran los murales con el tema de La Conquista de José Clemente Orozco que se encuentran en la Capilla Mayor del instituto."
			}
		],
		"_20152": [
			{
				"titulo": "Restauración Mathias Goeritz",
				"descripcion": "Con motivo del 100 aniversario del nacimiento del artista alemán Mathias Goeritz, se lleva a cabo la restauración de 82 obras en soporte de papel y una obra escultórica conformada por 27 piezas."
			}
		],
		"_20153": [
			{
				"titulo": "Adquisición de obra",
				"descripcion": "Con el objetivo de que en la Colección Pueblo de Jalisco estén representados, tanto los grandes artistas como los jóvenes profesionales de la plástica jaliscienses, la Secretaría de Cultura del Gobierno del Estado de Jalisco asigna una partida para la adquisición de 15 obras que incrementan y actualizan la colección que desde 1964 había permanecido estática."
			}
		],
		"_2017": [
			{
				"titulo": "XX aniversario. Patrimonio de la Humanidad",
				"descripcion": "El emblemático edificio del Hospicio Cabañas, que alberga al Instituto Cultural Cabañas, cumple su XX aniversario con una diversidad de exposiciones y eventos artísticos y culturales de talla internacional."
			}
		],
		"_20172": [
			{
				"titulo": "El Cabañas hoy",
				"descripcion": "Actualmente el Instituto Cultural Cabañas tiene bajo su resguardo las colecciones: José Clemente Orozo y Roberto Montenegro, acervos del INBA, Pueblo de Jalisco, Mathias Goeritz, Carlos Sthal, Artes Populares, Consejo Estatal para la Cultura y las Artes (CECA) y Pago en Especie. Dos fondos documentales: Hospicio Cabañas y Mathias Goeritz; tres fondos fotográficos: Mathias Goeritz, José María Lupercio y  Mariana Yampolsky. Cuenta con 29 salas museográficas para exhibiciones permanentes y temporales que a lo largo de cada año alberga propuestas de artistas locales, nacionales e internacionales. Seis salas cuyo objetivo es presentar de forma permanente las obras que conforman las colecciones en custodia del Instituto Cultural Cabañas. Para la producción de las exposiciones, el Instituto ha creado alianzas con importantes instituciones culturales y artísticas de México y el extranjero tanto del ámbito público como privado. Hoy por hoy el Instituto Cultural Cabañas alberga uno de los museos más importantes del país y se ha convertido en un referente cultural y artístico en el mundo."
			}
		]
	}
}